{
  "name": "RINGPLANEVENTS",
  "nodes": [
    {
      "parameters": {},
      "id": "dbf974c1-e167-42ee-b44b-82bc7ec5e609",
      "name": "When clicking \"Execute Workflow\"",
      "type": "n8n-nodes-base.manualTrigger",
      "typeVersion": 1,
      "position": [
        -5520,
        -80
      ]
    },
    {
      "parameters": {
        "values": {
          "string": [
            {
              "name": "title",
              "value": "Business TEST DELETE"
            },
            {
              "name": "description",
              "value": "Demo "
            },
            {
              "name": "password",
              "value": "secret"
            },
            {
              "name": "email",
              "value": "hello@admin.com,hello@adminin.com,admin@bsagnik.in"
            },
            {
              "name": "frequency",
              "value": "MONTHLY"
            },
            {
              "name": "by_week_day",
              "value": "1,5"
            },
            {
              "name": "start",
              "value": "2023-02-27 00:01:00"
            },
            {
              "name": "end",
              "value": "2023-02-27 00:01:30"
            }
          ],
          "number": [
            {
              "name": "by_week",
              "value": 1
            }
          ]
        },
        "options": {}
      },
      "id": "b6523fa2-d968-4368-a1fb-81bc4f468815",
      "name": "UserInput",
      "type": "n8n-nodes-base.set",
      "typeVersion": 1,
      "position": [
        -6280,
        340
      ]
    },
    {
      "parameters": {
        "method": "POST",
        "url": "https://ssp-backend.ringplan.com/meet/v2/events",
        "authentication": "genericCredentialType",
        "genericAuthType": "httpHeaderAuth",
        "sendBody": true,
        "bodyParameters": {
          "parameters": [
            {
              "name": "title",
              "value": "={{ $json.title }}"
            },
            {
              "name": "description",
              "value": "={{ $json.description }}"
            },
            {
              "name": "password",
              "value": "={{ $json.password }}"
            },
            {
              "name": "attendees",
              "value": "={{ $json.email }}"
            },
            {
              "name": "recurrence",
              "value": "={{ $json.recurrence }}"
            },
            {
              "name": "start",
              "value": "={{ $json.start }}"
            },
            {
              "name": "end",
              "value": "={{ $json.end }}"
            }
          ]
        },
        "options": {}
      },
      "id": "dc91f796-9c9e-44a8-a8e6-5706c22430b9",
      "name": "RingPlanMeetCreate",
      "type": "n8n-nodes-base.httpRequest",
      "typeVersion": 3,
      "position": [
        -5720,
        340
      ],
      "credentials": {
        "httpHeaderAuth": {
          "id": "2",
          "name": "Header Auth account"
        }
      }
    },
    {
      "parameters": {
        "values": {
          "string": [
            {
              "name": "title",
              "value": "Business EDIT"
            },
            {
              "name": "description",
              "value": "Demo "
            },
            {
              "name": "email",
              "value": "hello@admin.com,hello@adminin.com,admin@bsagnik.in"
            },
            {
              "name": "start",
              "value": "2023-02-07 00:01:00"
            },
            {
              "name": "end",
              "value": "2023-03-07 00:01:00"
            },
            {
              "name": "eventid",
              "value": "63f517ba72971ddb648d1dd2"
            }
          ]
        },
        "options": {}
      },
      "id": "f2bc9665-1887-46e2-b67b-03c1a45865dd",
      "name": "UserInputForPatch",
      "type": "n8n-nodes-base.set",
      "typeVersion": 1,
      "position": [
        -4620,
        140
      ]
    },
    {
      "parameters": {
        "jsCode": "// Loop over input items and add a new field\n// called 'myNewField' to the JSON of each one\nfor (const item of $input.all()) {\n  let emails = item.json.email.split(',');\n  let emailArray = [];\n  let start = new Date(item.json.start);\n  let end = new Date(item.json.end);\n  item.json.end = end.toISOString();\n  item.json.start = start.toISOString();\n  \n  for (let email of emails) {\n    emailArray.push({ email: email });\n  }\n  // set the \"email\" field to the array of JSON objects\n  item.json.email = emailArray;\n  \n  let recurrence = {};\n\n  recurrence.frequency = item.json.frequency;\n\n  if (item.json.by_week_day) {\n    recurrence.by_week_day = item.json.by_week_day.split(',').map(day => parseInt(day));\n  }\n\n  if (item.json.by_week) {\n    recurrence.by_week = parseInt(item.json.by_week);\n  }\n\n  item.json.recurrence = recurrence;\n  \n}\n\n\n\nreturn $input.all();"
      },
      "id": "8f4661ff-10ca-4702-b657-e6e4df4f4ba0",
      "name": "Preparing For Api Call",
      "type": "n8n-nodes-base.code",
      "typeVersion": 1,
      "position": [
        -6000,
        340
      ]
    },
    {
      "parameters": {
        "jsCode": "// Loop over input items and add a new field\n// called 'myNewField' to the JSON of each one\nfor (const item of $input.all()) {\n  let emails = item.json.email.split(',');\n  let emailArray = [];\n  let start = new Date(item.json.start);\n  let end = new Date(item.json.end);\n  item.json.end = end.toISOString();\n  item.json.start = start.toISOString();\n  \n  for (let email of emails) {\n    emailArray.push({ email: email });\n  }\n  // set the \"email\" field to the array of JSON objects\n  item.json.email = emailArray;\n  \n}\n\n\n\nreturn $input.all();"
      },
      "id": "2a473525-05c9-4139-b9c8-c9bc0f773a7d",
      "name": "Preparing For Api Call (Patch)",
      "type": "n8n-nodes-base.code",
      "typeVersion": 1,
      "position": [
        -4960,
        340
      ]
    },
    {
      "parameters": {
        "method": "PATCH",
        "url": "=https://ssp-backend.ringplan.com/meet/v2/events/{{ $json.eventid }}",
        "authentication": "genericCredentialType",
        "genericAuthType": "httpHeaderAuth",
        "sendBody": true,
        "bodyParameters": {
          "parameters": [
            {
              "name": "title",
              "value": "={{ $json.title }}"
            },
            {
              "name": "description",
              "value": "={{ $json.description }}"
            },
            {
              "name": "attendees",
              "value": "={{ $json.email }}"
            },
            {
              "name": "start",
              "value": "={{ $json.start }}"
            },
            {
              "name": "end",
              "value": "={{ $json.end }}"
            }
          ]
        },
        "options": {}
      },
      "id": "dc5a216b-9462-4815-89a4-9ba8c90d28a0",
      "name": "RingPlanMeetPatch",
      "type": "n8n-nodes-base.httpRequest",
      "typeVersion": 3,
      "position": [
        -4700,
        340
      ],
      "credentials": {
        "httpHeaderAuth": {
          "id": "2",
          "name": "Header Auth account"
        }
      }
    },
    {
      "parameters": {
        "values": {
          "string": [
            {
              "name": "eventid",
              "value": "63f51dc963e049fe278c0902"
            }
          ]
        },
        "options": {}
      },
      "id": "7b7222f1-d820-42e2-b187-b1042b5292c1",
      "name": "UserInputForMeetDelete",
      "type": "n8n-nodes-base.set",
      "typeVersion": 1,
      "position": [
        -4880,
        -360
      ]
    },
    {
      "parameters": {
        "method": "DELETE",
        "url": "=https://ssp-backend.ringplan.com/meet/v2/events/{{ $json.eventid }}",
        "authentication": "genericCredentialType",
        "genericAuthType": "httpHeaderAuth",
        "options": {}
      },
      "id": "80e58400-c4a3-4b7f-909a-2e7701d8dac9",
      "name": "RingPlanDelete",
      "type": "n8n-nodes-base.httpRequest",
      "typeVersion": 3,
      "position": [
        -4660,
        -360
      ],
      "credentials": {
        "httpHeaderAuth": {
          "id": "2",
          "name": "Header Auth account"
        }
      }
    },
    {
      "parameters": {
        "values": {
          "string": [
            {
              "name": "gid",
              "value": "1677008889.5324497.1469907443347029629"
            }
          ]
        },
        "options": {}
      },
      "id": "c6b20a90-9ba3-42e1-903e-c8d7f97b8e8c",
      "name": "UserInputForBuldDelete",
      "type": "n8n-nodes-base.set",
      "typeVersion": 1,
      "position": [
        -6260,
        -220
      ]
    },
    {
      "parameters": {
        "method": "DELETE",
        "url": "=https://ssp-backend.ringplan.com/meet/v2/bulk/events/{{ $json.gid }}",
        "authentication": "genericCredentialType",
        "genericAuthType": "httpHeaderAuth",
        "options": {}
      },
      "id": "1fe878d0-bc82-4792-b692-8ab2bbee4f48",
      "name": "RingPlanDelete1",
      "type": "n8n-nodes-base.httpRequest",
      "typeVersion": 3,
      "position": [
        -6280,
        -400
      ],
      "credentials": {
        "httpHeaderAuth": {
          "id": "2",
          "name": "Header Auth account"
        }
      }
    }
  ],
  "pinData": {},
  "connections": {
    "UserInput": {
      "main": [
        [
          {
            "node": "Preparing For Api Call",
            "type": "main",
            "index": 0
          }
        ]
      ]
    },
    "UserInputForPatch": {
      "main": [
        [
          {
            "node": "Preparing For Api Call (Patch)",
            "type": "main",
            "index": 0
          }
        ]
      ]
    },
    "Preparing For Api Call": {
      "main": [
        [
          {
            "node": "RingPlanMeetCreate",
            "type": "main",
            "index": 0
          }
        ]
      ]
    },
    "Preparing For Api Call (Patch)": {
      "main": [
        [
          {
            "node": "RingPlanMeetPatch",
            "type": "main",
            "index": 0
          }
        ]
      ]
    },
    "UserInputForMeetDelete": {
      "main": [
        [
          {
            "node": "RingPlanDelete",
            "type": "main",
            "index": 0
          }
        ]
      ]
    },
    "When clicking \"Execute Workflow\"": {
      "main": [
        []
      ]
    },
    "UserInputForBuldDelete": {
      "main": [
        [
          {
            "node": "RingPlanDelete1",
            "type": "main",
            "index": 0
          }
        ]
      ]
    }
  },
  "active": false,
  "settings": {},
  "versionId": "f2a1dfe2-db68-49bf-9ad4-0d6af88c99e3",
  "id": "1",
  "meta": {
    "instanceId": "7eb9add163992f29c004c28faab612e5e9ae4b9b396436b695506431e7080a56"
  },
  "tags": []
}